[gd_resource type="StyleBoxFlat" format=3 uid="uid://cjs4cfdtkd6xr"]

[resource]
bg_color = Color(1, 1, 1, 0)
border_width_left = 1
border_width_top = 1
border_width_right = 1
border_width_bottom = 1
border_color = Color(0.498039, 0.498039, 0.498039, 0.498039)
corner_radius_top_left = 8
corner_radius_top_right = 8
corner_radius_bottom_right = 8
corner_radius_bottom_left = 8
corner_detail = 5
