[gd_resource type="StandardMaterial3D" load_steps=6 format=3 uid="uid://wiyplvb25p7j"]

[ext_resource type="Texture2D" uid="uid://cfmoij5qd6s7t" path="res://art/materials/wood_planks/planks.png" id="1_8old0"]
[ext_resource type="Texture2D" uid="uid://k2np76blr5nl" path="res://art/materials/wood_planks/planks_ao.png" id="2_10yg8"]
[ext_resource type="Texture2D" uid="uid://1uruk6f3rk8a" path="res://art/materials/wood_planks/planks_normal.png" id="3_hlkek"]
[ext_resource type="Texture2D" uid="uid://cxyvd4ki0m6q7" path="res://art/materials/wood_planks/planks_roughness.png" id="4_i3gsv"]

[sub_resource type="CompressedTexture2D" id="CompressedTexture2D_fqgk7"]

[resource]
albedo_color = Color(0.341176, 0.254902, 0.176471, 1)
albedo_texture = ExtResource("1_8old0")
metallic_specular = 0.06
roughness_texture = ExtResource("4_i3gsv")
normal_enabled = true
normal_scale = 2.0
normal_texture = ExtResource("3_hlkek")
ao_enabled = true
ao_light_affect = 1.0
ao_texture = ExtResource("2_10yg8")
heightmap_scale = 16.0
heightmap_texture = SubResource("CompressedTexture2D_fqgk7")
uv1_scale = Vector3(0.333, 0.333, 0.333)
uv1_offset = Vector3(0, 0.02, 0.167)
uv1_triplanar = true
