[gd_resource type="StandardMaterial3D" load_steps=2 format=3 uid="uid://c1wahn2fa277v"]

[ext_resource type="Texture2D" uid="uid://dngkgnk142j7u" path="res://art/models/maxwell/textures/maxwell.png" id="1_vbskw"]

[resource]
specular_mode = 1
albedo_texture = ExtResource("1_vbskw")
normal_scale = 16.0
rim_tint = 1.0
anisotropy = 1.0
