[gd_resource type="VoxelGraphFunction" load_steps=3 format=3 uid="uid://b0oj4ftfdr144"]

[sub_resource type="FastNoise2" id="FastNoise2_xc6tk"]
period = 5000.0
remap_enabled = true
remap_output_min = 0.0

[sub_resource type="FastNoise2" id="FastNoise2_4mwnu"]
seed = 11
period = 10000.0
fractal_type = 1
fractal_lacunarity = 4.0
fractal_gain = 0.3

[resource]
graph_data = {
"connections": [[9, 0, 5, 1], [9, 0, 16, 1], [1, 0, 18, 0], [11, 0, 14, 0], [12, 0, 11, 0], [13, 0, 11, 1], [15, 0, 9, 1], [15, 0, 8, 1], [16, 0, 18, 1], [3, 0, 1, 0], [18, 0, 12, 0], [5, 0, 3, 0], [6, 0, 9, 0], [7, 0, 8, 0], [8, 0, 5, 0], [8, 0, 16, 0]],
"nodes": {
"1": {
"gui_position": Vector2(200, 80),
"max0": 1.0,
"max1": -2.0,
"min0": 0.0,
"min1": 1.0,
"type": "Remap"
},
"11": {
"gui_position": Vector2(840, 320),
"name": &"mountain_h",
"type": "Multiply"
},
"12": {
"gui_position": Vector2(520, 120),
"max": 1.0,
"min": 0.0,
"type": "ClampC"
},
"13": {
"gui_position": Vector2(500, 500),
"name": &"max_height",
"type": "CustomInput"
},
"14": {
"gui_position": Vector2(1040, 320),
"type": "CustomOutput"
},
"15": {
"gui_position": Vector2(-640, 100),
"name": &"stretch_h",
"type": "CustomInput"
},
"16": {
"auto_connect": true,
"gui_position": Vector2(-140, 380),
"noise": SubResource("FastNoise2_xc6tk"),
"type": "FastNoise2_2D"
},
"18": {
"gui_position": Vector2(340, 180),
"type": "Multiply"
},
"3": {
"gui_position": Vector2(80, 80),
"type": "Abs"
},
"5": {
"auto_connect": true,
"gui_position": Vector2(-140, 80),
"noise": SubResource("FastNoise2_4mwnu"),
"type": "FastNoise2_2D"
},
"6": {
"gui_position": Vector2(-520, 380),
"type": "InputZ"
},
"7": {
"gui_position": Vector2(-520, 0),
"type": "InputX"
},
"8": {
"gui_position": Vector2(-420, -20),
"type": "Divide"
},
"9": {
"gui_position": Vector2(-420, 380),
"type": "Divide"
}
},
"version": 2
}
input_definitions = [["x", "InputX", 0], ["z", "InputZ", 0], ["max_height", "CustomInput", 0], ["stretch_h", "CustomInput", 0]]
output_definitions = [["", "CustomOutput", 0]]
