[gd_scene load_steps=9 format=3 uid="uid://diwmtnhogsn3g"]

[ext_resource type="Script" path="res://scripts/character/character.gd" id="1_irydq"]
[ext_resource type="Script" path="res://scripts/character/controller.gd" id="2_8djhu"]
[ext_resource type="Script" path="res://scripts/character/interpolator.gd" id="3_i386s"]

[sub_resource type="CapsuleMesh" id="CapsuleMesh_0lnem"]

[sub_resource type="StandardMaterial3D" id="StandardMaterial3D_e412x"]
albedo_color = Color(0.0588235, 0.0588235, 0.0588235, 1)

[sub_resource type="BoxMesh" id="BoxMesh_upvgr"]
material = SubResource("StandardMaterial3D_e412x")
size = Vector3(0.5, 0.25, 0.25)

[sub_resource type="CapsuleShape3D" id="CapsuleShape3D_h6l3v"]

[sub_resource type="SceneReplicationConfig" id="SceneReplicationConfig_wlh5w"]
properties/0/path = NodePath(".:position")
properties/0/spawn = true
properties/0/replication_mode = 1
properties/1/path = NodePath(".:rotation")
properties/1/spawn = true
properties/1/replication_mode = 1

[node name="Character" type="CharacterBody3D"]
disable_mode = 1
collision_layer = 2
script = ExtResource("1_irydq")

[node name="Camera" type="Camera3D" parent="."]
transform = Transform3D(1, 0, 0, 0, 1, 0, 0, 0, 1, 0, 1.5, 0)

[node name="Appearance" type="MeshInstance3D" parent="."]
transform = Transform3D(1, 0, 0, 0, 1, 0, 0, 0, 1, 0, 1, 0)
mesh = SubResource("CapsuleMesh_0lnem")

[node name="MeshInstance3D" type="MeshInstance3D" parent="Appearance"]
transform = Transform3D(1, 0, 0, 0, 1, 0, 0, 0, 1, 0, 0.5, -0.5)
mesh = SubResource("BoxMesh_upvgr")

[node name="Collider" type="CollisionShape3D" parent="."]
transform = Transform3D(1, 0, 0, 0, 1, 0, 0, 0, 1, 0, 1, 0)
shape = SubResource("CapsuleShape3D_h6l3v")

[node name="Controller" type="Node" parent="."]
script = ExtResource("2_8djhu")

[node name="Interpolator" type="Node" parent="."]
script = ExtResource("3_i386s")

[node name="Synchronizer" type="MultiplayerSynchronizer" parent="."]
replication_config = SubResource("SceneReplicationConfig_wlh5w")
