[gd_scene load_steps=3 format=3 uid="uid://ef45vwvvvia1"]

[ext_resource type="StyleBox" uid="uid://mve3l10o28ai" path="res://resources/ui/button_default.tres" id="1_m54w1"]

[sub_resource type="LabelSettings" id="LabelSettings_ubjlp"]
font_size = 28

[node name="ServerButton" type="Button"]
custom_minimum_size = Vector2(0, 100)
theme_override_styles/normal = ExtResource("1_m54w1")
alignment = 0

[node name="MarginContainer" type="MarginContainer" parent="."]
layout_mode = 1
anchors_preset = 15
anchor_right = 1.0
anchor_bottom = 1.0
grow_horizontal = 2
grow_vertical = 2
theme_override_constants/margin_top = 8

[node name="VBoxContainer" type="VBoxContainer" parent="MarginContainer"]
layout_mode = 2

[node name="Title" type="Label" parent="MarginContainer/VBoxContainer"]
layout_mode = 2
size_flags_vertical = 3
size_flags_stretch_ratio = 2.0
text = "Server Name"
label_settings = SubResource("LabelSettings_ubjlp")

[node name="Username" type="Label" parent="MarginContainer/VBoxContainer"]
layout_mode = 2
size_flags_vertical = 3
text = "Player Username"
