[gd_scene load_steps=4 format=3 uid="uid://d36xt2ttie50h"]

[ext_resource type="PackedScene" uid="uid://m6cytn16ttad" path="res://scenes/world/environment.tscn" id="1_2guer"]
[ext_resource type="AudioStream" uid="uid://lyb5qebl660q" path="res://art/sfx/ambient/wind.mp3" id="2_bifoc"]
[ext_resource type="AudioStream" uid="uid://dehkev7mxf3xg" path="res://art/sfx/ambient/plains.ogg" id="3_4fg4m"]

[node name="Environment" instance=ExtResource("1_2guer")]

[node name="Wind" type="AudioStreamPlayer" parent="." index="2"]
stream = ExtResource("2_bifoc")
volume_db = -40.0
autoplay = true
mix_target = 1

[node name="Plains" type="AudioStreamPlayer" parent="." index="3"]
stream = ExtResource("3_4fg4m")
volume_db = 6.0
autoplay = true
mix_target = 1
