[gd_resource type="ShaderMaterial" load_steps=2 format=3 uid="uid://dtabyuukncp2j"]

[ext_resource type="Shader" uid="uid://bv4kt48a6jqv5" path="res://art/models/grass/grass_shader.tres" id="1_tvvhf"]

[resource]
render_priority = 0
shader = ExtResource("1_tvvhf")
shader_parameter/time_scale = 0.1
shader_parameter/distance_scale = 0.02
shader_parameter/wind_direction = Vector3(-1, 0.5, -1)
shader_parameter/bottom_color = Color(0.14, 0.2, 0.08, 1)
shader_parameter/top_color = Color(0.39, 0.6, 0.18, 1)
